woonplaats_identificatie,woonplaats_begindatum,woonplaats_einddatum,woonplaats_naam,woonplaats_status,woonplaats_inonderzoek,openbareruimte_identificatie,openbareruimte_begindatum,openbareruimte_einddatum,openbareruimte_naam,openbareruimte_type,openbareruimte_inonderzoek,openbareruimte_status,nummeraanduiding_identificatie,nummeraanduiding_begindatum,nummeraanduiding_einddatum,nummeraanduiding_huisnummer,nummeraanduiding_huisletter,nummeraanduiding_huisnummertoevoeging,nummeraanduiding_postcode,nummeraanduiding_inonderzoek,nummeraanduiding_type,nummeraanduiding_status,verblijfsobject_identificatie,verblijfsobject_begindatum,verblijfsobject_einddatum,verblijfsobject_oppervlakte,verblijfsobject_status,verblijfsobject_inonderzoek,verblijfsobject_gebruiksdoel,pand_identificatie,pand_begindatum,pand_einddatum,pand_status,pand_inonderzoek,pand_bouwjaar
1331,2007-11-13,,Bussum,Woonplaats aangewezen,N,0381300000100001,2009-07-01,,Aaltje Noordewierlaan,Weg,N,Naamgeving uitgegeven,0381200000100500,1992-03-24,,1,A,1-R,1403JA,J,Verblijfsobject,Naamgeving uitgegeven,0381010000020398,1994-03-17,,67,Verblijfsobject in gebruik,N,woonfunctie,0381100000118244,1994-03-17,,Pand in gebruik,N,1992
1331,2007-11-13,,Bussum,Woonplaats aangewezen,N,0381300000100002,2009-07-02,,dr. Abraham Kuyperlaan,Weg,N,Naamgeving uitgegeven,0381200000105490,2010-09-21,,124,,,1402HR,N,Verblijfsobject,Naamgeving uitgegeven,0381010000024346,2002-12-27,,89,Verblijfsobject in gebruik,N,woonfunctie,0381100000117125,2002-12-27,,Pand in gebruik,N,2004
1331,2007-11-13,,Bussum,Woonplaats aangewezen,N,0381300000100003,2009-07-03,,Achtermeulenlaan,Weg,N,Naamgeving uitgegeven,0381200000100308,2010-09-21,,17,,,1402SW,N,Verblijfsobject,Naamgeving uitgegeven,0381010000020282,2010-05-12,,92,Verblijfsobject in gebruik,N,kantoorfunctie,0381100000105985,2010-05-12,,Pand in gebruik,N,1904
1331,2007-11-13,,Bussum,Woonplaats aangewezen,N,0381300000100233,2009-07-01,,Hooftlaan,Weg,N,Naamgeving uitgegeven,0381200000105209,1994-03-28,,30,,WS3,1401EE,N,Ligplaats,Naamgeving uitgegeven,0381020000100003,2010-10-05,,,Plaats aangewezen,N,woonfunctie,,,,,,
1331,2007-11-13,,Bussum,Woonplaats aangewezen,N,0381300000100308,2009-07-01,,Zanderijweg,Weg,N,Naamgeving uitgegeven,0381200000117616,1982-04-21,,7,,,1403XW,N,Standplaats,Naamgeving uitgegeven,0381030000100001,2010-10-05,,,Plaats aangewezen,N,woonfunctie,,,,,,